Create GIF image for dynamic rotating view of 3D quaternary simplex plot — writeQuaternaryGIF • CytoSimplex
…
    Examples

gene <- selectTopFeatures(rnaRaw, rnaCluster, c("RE", "OS", "CH", "ORT"))
#> Selected 30 features for "CH".
#> Selected 30 features for "ORT".
#> Selected 30 features for "OS".
#> Selected 30 features for "RE".
# \donttest{
writeQuaternaryGIF(rnaRaw, clusterVar = rnaCluster, features = gene,
                   vertices = c("RE", "OS", "CH", "ORT"),
                   gifPath = tempfile(fileext = ".gif"))
#> ℹ Assembling frames
#> ✔ Assembling frames ... done
#> 
#> # A tibble: 37 × 7
#>    format width height colorspace matte filesize density
#>    <chr>  <int>  <int> <chr>      <lgl>    <int> <chr>  
#>  1 gif      500    500 sRGB       TRUE         0 72x72  
#>  2 gif      500    500 sRGB       TRUE         0 72x72  
#>  3 gif      500    500 sRGB       TRUE         0 72x72  
#>  4 gif      500    500 sRGB       TRUE         0 72x72  
#>  5 gif      500    500 sRGB       TRUE         0 72x72  
#>  6 gif      500    500 sRGB       TRUE         0 72x72  
#>  7 gif      500    500 sRGB       TRUE         0 72x72  
#>  8 gif      500    500 sRGB       TRUE         0 72x72  
#>  9 gif      500    500 sRGB       TRUE         0 72x72  
#> 10 gif      500    500 sRGB       TRUE         0 72x72  
#> # ℹ 27 more rows
…
